…
Due to the generated output we have calculated a mean value of 1.0766189\times 10^{4} steps and a median of 10765 steps.

## What is the average daily activity pattern?

As the first step, we are sorting the data by `group_by()` and then determing the `mean()` of each 5-minute interval.

```r
data_grouped_2 <- group_by(data_act, interval)
data_avg_steps <- summarise(data_grouped_2, steps_avg = mean(steps, na.rm = TRUE))
data_avg_steps
```

```
## # A tibble: 288 x 2
##    interval steps_avg
##    <fct>        <dbl>
##  1 0           1.72  
##  2 5           0.340 
##  3 10          0.132 
##  4 15          0.151 
##  5 20          0.0755
##  6 25          2.09  
##  7 30          0.528 
##  8 35          0.868 
##  9 40          0     
## 10 45          1.47  
## # … with 278 more rows
```
…
